User-Id,First-Name,Last-Name,Rating
0,FirstName 0,LastName 0,207
1,FirstName 1,LastName 1,291
2,FirstName 2,LastName 2,76
3,FirstName 3,LastName 3,41
4,FirstName 4,LastName 4,161
5,FirstName 5,LastName 5,271
6,FirstName 6,LastName 6,239
7,FirstName 7,LastName 7,200
8,FirstName 8,LastName 8,225
9,FirstName 9,LastName 9,82
